Mini Project 1: Get Ur Gait On
…
OK, all well ’n good. But does it make sense to identify our tracked points by “TID”, that is 1, 2, and 3? Wouldn’t it be better to change this to some character description like “hipL”, “hipR”, and “legR”, for left hip, right hip, and right leg, respectively. Let’s do it by changing TID to these strings using a series of mutate operations that replace each TID value. (if you do this, confirm the order is correct!)

walk.dat2%>%
  mutate(TID=replace(TID, TID==1, "hipR"))%>%
  mutate(TID=replace(TID, TID==2, "hipL"))%>%
  mutate(TID=replace(TID, TID==3, "legR"))

## # A tibble: 600 x 6
## # Groups:   speed, subject [4]
##    TID     PID     x     y subject speed
##    <chr> <dbl> <dbl> <dbl> <chr>   <chr>
##  1 hipR      1  200.  178. me      fast 
##  2 hipR      2  200.  178. me      fast 
##  3 hipR      3  200.  178. me      fast 
##  4 hipR      4  200.  178. me      fast 
##  5 hipR      5  199.  177. me      fast 
##  6 hipR      6  199.  177. me      fast 
##  7 hipR      7  199.  177. me      fast 
##  8 hipR      8  199.  177. me      fast 
##  9 hipR      9  199.  176. me      fast 
## 10 hipR     10  199.  176. me      fast 
## # … with 590 more rows
…
